Django==2.2.11
django-cors-headers==3.2.1
djangorestframework==3.11.0
djangorestframework-jwt==1.11.0
psycopg2==2.8.4
mysqlclient==1.4.6
ipython==7.13.0
Faker==4.0.2
Twisted==20.3.0
gunicorn==20.0.4
uvicorn[standard]==0.13.3
django-mjml==0.9.0
requests==2.25.0
itsdangerous==1.1.0
drf-spectacular==0.13.1
Pillow==8.0.1
channels==3.0.3
channels-redis==3.2.0
celery[redis]==5.0.5
advocate==1.0.0
